\relax 
\@writefile{toc}{\contentsline {section}{\numberline {1}Introdu\IeC {\c c}\IeC {\~a}o}{3}}
\@writefile{toc}{\contentsline {subsection}{\numberline {1.1}Motiva\IeC {\c c}\IeC {\~a}o}{3}}
\@writefile{toc}{\contentsline {subsection}{\numberline {1.2}Objetivo}{3}}
\@writefile{toc}{\contentsline {subsection}{\numberline {1.3}Metodologia}{3}}
\@writefile{toc}{\contentsline {section}{\numberline {2}Teoria}{4}}
\@writefile{toc}{\contentsline {section}{\numberline {3}Proposta}{5}}
\@writefile{toc}{\contentsline {section}{\numberline {4}Resultados}{7}}
\@writefile{toc}{\contentsline {section}{\numberline {5}Conclus\IeC {\~a}o}{8}}
\@writefile{toc}{\contentsline {section}{\numberline {6}Bibliografia}{9}}
\@writefile{lof}{\contentsline {figure}{\numberline {1}{\ignorespaces C\IeC {\'o}digo fonte da biblioteca do m\IeC {\'e}todo de Descida de Gradiente.\relax }}{10}}
\providecommand*\caption@xref[2]{\@setref\relax\@undefined{#1}}
\newlabel{fig:CodigoFonteDescida}{{1}{10}}
\@writefile{lof}{\contentsline {figure}{\numberline {2}{\ignorespaces C\IeC {\'o}digo fonte da implementa\IeC {\c c}\IeC {\~a}o da classe do m\IeC {\'e}todo de Newton-Raphson, pode-se ver o algoritmo para encontrar a raiz.\relax }}{10}}
\newlabel{fig:CodigoFonteNewton}{{2}{10}}
\@writefile{lof}{\contentsline {figure}{\numberline {3}{\ignorespaces Resultado do exerc\IeC {\'\i }cio A utilizando M\IeC {\'e}todo de Newton-Raphson com taxa de aprendizado igual a 1.\relax }}{11}}
\newlabel{fig:ResultadoExercicioANewton}{{3}{11}}
\@writefile{lof}{\contentsline {figure}{\numberline {4}{\ignorespaces Resultado do exerc\IeC {\'\i }cio B utilizando M\IeC {\'e}todo de Newton-Raphson com taxa de aprendizado igual a 1.\relax }}{11}}
\newlabel{fig:ResultadoExercicioBNewton}{{4}{11}}
\@writefile{lof}{\contentsline {figure}{\numberline {5}{\ignorespaces Resultado do exerc\IeC {\'\i }cio A utilizando M\IeC {\'e}todo de Descida de Gradiente com taxa de aprendizado igual a 0.2.\relax }}{11}}
\newlabel{fig:ResultadoExercicioADescida}{{5}{11}}
\@writefile{lof}{\contentsline {figure}{\numberline {6}{\ignorespaces Resultado do exerc\IeC {\'\i }cio C utilizando M\IeC {\'e}todo de Descida de Gradiente com taxa de aprendizado igual a 0.1. X inicial = 2 e Y inicial = 2\relax }}{11}}
\newlabel{fig:ResultadoExercicioCDescida}{{6}{11}}
\@writefile{lof}{\contentsline {figure}{\numberline {7}{\ignorespaces Resultado do exerc\IeC {\'\i }cio D utilizando M\IeC {\'e}todo de Descida de Gradiente com taxa de aprendizado igual a 0.1. X inicial = 2 e Y inicial = 2\relax }}{12}}
\newlabel{fig:ResultadoExercicioDDescida}{{7}{12}}
